\relax 
\providecommand\hyper@newdestlabel[2]{}
\providecommand\HyperFirstAtBeginDocument{\AtBeginDocument}
\HyperFirstAtBeginDocument{\ifx\hyper@anchor\@undefined
\global\let\oldcontentsline\contentsline
\gdef\contentsline#1#2#3#4{\oldcontentsline{#1}{#2}{#3}}
\global\let\oldnewlabel\newlabel
\gdef\newlabel#1#2{\newlabelxx{#1}#2}
\gdef\newlabelxx#1#2#3#4#5#6{\oldnewlabel{#1}{{#2}{#3}}}
\AtEndDocument{\ifx\hyper@anchor\@undefined
\let\contentsline\oldcontentsline
\let\newlabel\oldnewlabel
\fi}
\fi}
\global\let\hyper@last\relax 
\gdef\HyperFirstAtBeginDocument#1{#1}
\providecommand\HyField@AuxAddToFields[1]{}
\providecommand\HyField@AuxAddToCoFields[2]{}
\catcode `"\active 
\bibstyle{acm}
\select@language{brazilian}
\@writefile{toc}{\select@language{brazilian}}
\@writefile{lof}{\select@language{brazilian}}
\@writefile{lot}{\select@language{brazilian}}
\@writefile{toc}{\contentsline {section}{\numberline {1}Resumo}{A--1}{section.1}}
\@writefile{toc}{\contentsline {section}{\numberline {2}Abstract}{B--1}{section.2}}
\citation{Axelrod1981}
\citation{VonNeumann1944,Nash1950,Axelrod1997}
\citation{Gintis2000,Pereira2008,Pereira2008a}
\citation{Szabo2007}
\citation{Nash1951}
\citation{Gintis2000}
\citation{Nash1979,Nash1950}
\citation{Szabo2007,Gintis2000}
\citation{Szolnoki2010,Brandt2003,Brandt2006}
\citation{JohnF.Nash1979}
\citation{Sigmund2001,Nowak1992}
\citation{Szabo2007,Axelrod2000}
\citation{Adami2017,Szabo2007}
\citation{Szolnoki2011}
\citation{Anttila2011,Reichl,Reif}
\citation{Hauert2008}
\bibdata{main}
\bibcite{Adami2017}{{1}{}{{}}{{}}}
\bibcite{Anttila2011}{{2}{}{{}}{{}}}
\bibcite{Axelrod1997}{{3}{}{{}}{{}}}
\bibcite{Axelrod2000}{{4}{}{{}}{{}}}
\bibcite{Axelrod1981}{{5}{}{{}}{{}}}
\bibcite{Brandt2003}{{6}{}{{}}{{}}}
\bibcite{Brandt2006}{{7}{}{{}}{{}}}
\bibcite{Gintis2000}{{8}{}{{}}{{}}}
\bibcite{Hauert2008}{{9}{}{{}}{{}}}
\bibcite{Nash1950}{{10}{}{{}}{{}}}
\bibcite{Nash1951}{{11}{}{{}}{{}}}
\bibcite{JohnF.Nash1979}{{12}{}{{}}{{}}}
\bibcite{Nash1979}{{13}{}{{}}{{}}}
\bibcite{Nowak1992}{{14}{}{{}}{{}}}
\bibcite{Pereira2008}{{15}{}{{}}{{}}}
\bibcite{Pereira2008a}{{16}{}{{}}{{}}}
\bibcite{Reichl}{{17}{}{{}}{{}}}
\bibcite{Reif}{{18}{}{{}}{{}}}
\bibcite{Sigmund2001}{{19}{}{{}}{{}}}
\bibcite{Szabo2007}{{20}{}{{}}{{}}}
\bibcite{Szolnoki2010}{{21}{}{{}}{{}}}
\bibcite{Szolnoki2011}{{22}{}{{}}{{}}}
\bibcite{VonNeumann1944}{{23}{}{{}}{{}}}
\providecommand\NAT@force@numbers{}\NAT@force@numbers
